<?xml version="1.0" encoding="UTF-8" standalone="no"?>
<!-- Created with Inkscape (http://www.inkscape.org/) -->

<svg
   xmlns:dc="http://purl.org/dc/elements/1.1/"
   xmlns:cc="http://creativecommons.org/ns#"
   xmlns:rdf="http://www.w3.org/1999/02/22-rdf-syntax-ns#"
   xmlns:svg="http://www.w3.org/2000/svg"
   xmlns="http://www.w3.org/2000/svg"
   xmlns:sodipodi="http://sodipodi.sourceforge.net/DTD/sodipodi-0.dtd"
   xmlns:inkscape="http://www.inkscape.org/namespaces/inkscape"
   width="210mm"
   height="297mm"
   viewBox="0 0 210 297"
   version="1.1"
   id="svg8"
   inkscape:version="0.92.3 (2405546, 2018-03-11)"
   sodipodi:docname="icons.svg">
  <defs
     id="defs2" />
  <sodipodi:namedview
     id="base"
     pagecolor="#ffffff"
     bordercolor="#666666"
     borderopacity="1.0"
     inkscape:pageopacity="0.0"
     inkscape:pageshadow="2"
     inkscape:zoom="6.5459158"
     inkscape:cx="501.84572"
     inkscape:cy="661.85597"
     inkscape:document-units="mm"
     inkscape:current-layer="layer1"
     showgrid="false"
     inkscape:window-width="1918"
     inkscape:window-height="1078"
     inkscape:window-x="0"
     inkscape:window-y="0"
     inkscape:window-maximized="0"
     showguides="true"
     inkscape:guide-bbox="true"
     inkscape:snap-object-midpoints="true">
    <inkscape:grid
       type="xygrid"
       id="grid1658" />
    <sodipodi:guide
       position="28.40949,202.92494"
       orientation="0,1"
       id="guide1660"
       inkscape:locked="false" />
  </sodipodi:namedview>
  <metadata
     id="metadata5">
    <rdf:RDF>
      <cc:Work
         rdf:about="">
        <dc:format>image/svg+xml</dc:format>
        <dc:type
           rdf:resource="http://purl.org/dc/dcmitype/StillImage" />
        <dc:title />
      </cc:Work>
    </rdf:RDF>
  </metadata>
  <g
     inkscape:label="Capa 1"
     inkscape:groupmode="layer"
     id="layer1">
    <g
       id="g1455"
       transform="matrix(0.75026029,0,0,0.75026029,-7.7385602,10.474736)">
      <g
         inkscape:export-ydpi="94.129539"
         inkscape:export-xdpi="94.129539"
         style="fill:#3c3c3c;fill-opacity:1"
         transform="translate(-9.3826549,1.0337865)"
         id="g1023">
        <path
           style="opacity:1;fill:#3c3c3c;fill-opacity:1;stroke:none;stroke-width:1.32291663;stroke-linecap:round;stroke-linejoin:miter;stroke-miterlimit:4;stroke-dasharray:none;stroke-opacity:1"
           d="m 79.873918,132.33086 h 1.371385 c 0.154003,0 0.238235,0.1292 0.277983,0.27798 l 0.529167,1.98076 c 0.06157,0.23048 -0.192059,0.43063 -0.430627,0.43063 h -2.12443 c -0.238568,0 -0.492202,-0.20015 -0.430629,-0.43063 l 0.529167,-1.98076 c 0.03975,-0.14878 0.123981,-0.27798 0.277984,-0.27798 z"
           id="rect996"
           inkscape:connector-curvature="0"
           sodipodi:nodetypes="sssssssss" />
        <path
           style="opacity:1;fill:#3c3c3c;fill-opacity:1;stroke:none;stroke-width:1.32291663;stroke-linecap:round;stroke-linejoin:miter;stroke-miterlimit:4;stroke-dasharray:none;stroke-opacity:1"
           d="m 81.245301,144.20385 h -1.371385 c -0.154003,0 -0.238235,-0.1292 -0.277983,-0.27798 l -0.529167,-1.98076 c -0.06157,-0.23048 0.192058,-0.43063 0.430627,-0.43063 h 2.12443 c 0.238568,0 0.492202,0.20015 0.430629,0.43063 l -0.529167,1.98076 c -0.03975,0.14878 -0.123981,0.27798 -0.277984,0.27798 z"
           id="rect996-8"
           inkscape:connector-curvature="0"
           sodipodi:nodetypes="sssssssss" />
      </g>
      <path
         inkscape:export-ydpi="94.129539"
         inkscape:export-xdpi="94.129539"
         inkscape:connector-curvature="0"
         id="path1014"
         d="m 71.121513,134.7608 a 4.5404059,4.5404059 0 0 0 -4.540632,4.54064 4.5404059,4.5404059 0 0 0 4.540632,4.54004 4.5404059,4.5404059 0 0 0 4.540039,-4.54004 4.5404059,4.5404059 0 0 0 -4.540039,-4.54064 z m 0,2.18503 a 2.3554687,2.3554687 0 0 1 2.355612,2.35561 2.3554687,2.3554687 0 0 1 -2.355612,2.35502 2.3554687,2.3554687 0 0 1 -2.355614,-2.35502 2.3554687,2.3554687 0 0 1 2.355614,-2.35561 z"
         style="opacity:1;fill:#3c3c3c;fill-opacity:1;stroke:none;stroke-width:1.52166772;stroke-linecap:round;stroke-linejoin:miter;stroke-miterlimit:4;stroke-dasharray:none;stroke-opacity:1" />
      <g
         inkscape:export-ydpi="94.129539"
         inkscape:export-xdpi="94.129539"
         style="fill:#3c3c3c;fill-opacity:1"
         transform="rotate(90,75.323518,134.06505)"
         id="g1023-7">
        <path
           style="opacity:1;fill:#3c3c3c;fill-opacity:1;stroke:none;stroke-width:1.32291663;stroke-linecap:round;stroke-linejoin:miter;stroke-miterlimit:4;stroke-dasharray:none;stroke-opacity:1"
           d="m 79.873918,132.33086 h 1.371385 c 0.154003,0 0.238235,0.1292 0.277983,0.27798 l 0.529167,1.98076 c 0.06157,0.23048 -0.192059,0.43063 -0.430627,0.43063 h -2.12443 c -0.238568,0 -0.492202,-0.20015 -0.430629,-0.43063 l 0.529167,-1.98076 c 0.03975,-0.14878 0.123981,-0.27798 0.277984,-0.27798 z"
           id="rect996-9"
           inkscape:connector-curvature="0"
           sodipodi:nodetypes="sssssssss" />
        <path
           style="opacity:1;fill:#3c3c3c;fill-opacity:1;stroke:none;stroke-width:1.32291663;stroke-linecap:round;stroke-linejoin:miter;stroke-miterlimit:4;stroke-dasharray:none;stroke-opacity:1"
           d="m 81.245301,144.20385 h -1.371385 c -0.154003,0 -0.238235,-0.1292 -0.277983,-0.27798 l -0.529167,-1.98076 c -0.06157,-0.23048 0.192058,-0.43063 0.430627,-0.43063 h 2.12443 c 0.238568,0 0.492202,0.20015 0.430629,0.43063 l -0.529167,1.98076 c -0.03975,0.14878 -0.123981,0.27798 -0.277984,0.27798 z"
           id="rect996-8-2"
           inkscape:connector-curvature="0"
           sodipodi:nodetypes="sssssssss" />
      </g>
      <g
         inkscape:export-ydpi="94.129539"
         inkscape:export-xdpi="94.129539"
         style="fill:#3c3c3c;fill-opacity:1"
         transform="rotate(-45,77.088303,150.1774)"
         id="g1023-0">
        <path
           style="opacity:1;fill:#3c3c3c;fill-opacity:1;stroke:none;stroke-width:1.32291663;stroke-linecap:round;stroke-linejoin:miter;stroke-miterlimit:4;stroke-dasharray:none;stroke-opacity:1"
           d="m 79.873918,132.33086 h 1.371385 c 0.154003,0 0.238235,0.1292 0.277983,0.27798 l 0.529167,1.98076 c 0.06157,0.23048 -0.192059,0.43063 -0.430627,0.43063 h -2.12443 c -0.238568,0 -0.492202,-0.20015 -0.430629,-0.43063 l 0.529167,-1.98076 c 0.03975,-0.14878 0.123981,-0.27798 0.277984,-0.27798 z"
           id="rect996-2"
           inkscape:connector-curvature="0"
           sodipodi:nodetypes="sssssssss" />
        <path
           style="opacity:1;fill:#3c3c3c;fill-opacity:1;stroke:none;stroke-width:1.32291663;stroke-linecap:round;stroke-linejoin:miter;stroke-miterlimit:4;stroke-dasharray:none;stroke-opacity:1"
           d="m 81.245301,144.20385 h -1.371385 c -0.154003,0 -0.238235,-0.1292 -0.277983,-0.27798 l -0.529167,-1.98076 c -0.06157,-0.23048 0.192058,-0.43063 0.430627,-0.43063 h 2.12443 c 0.238568,0 0.492202,0.20015 0.430629,0.43063 l -0.529167,1.98076 c -0.03975,0.14878 -0.123981,0.27798 -0.277984,0.27798 z"
           id="rect996-8-3"
           inkscape:connector-curvature="0"
           sodipodi:nodetypes="sssssssss" />
      </g>
      <g
         inkscape:export-ydpi="94.129539"
         inkscape:export-xdpi="94.129539"
         style="fill:#3c3c3c;fill-opacity:1"
         transform="matrix(-0.70710678,-0.70710678,-0.70710678,0.70710678,225.85525,98.495603)"
         id="g1023-0-7">
        <path
           style="opacity:1;fill:#3c3c3c;fill-opacity:1;stroke:none;stroke-width:1.32291663;stroke-linecap:round;stroke-linejoin:miter;stroke-miterlimit:4;stroke-dasharray:none;stroke-opacity:1"
           d="m 79.873918,132.33086 h 1.371385 c 0.154003,0 0.238235,0.1292 0.277983,0.27798 l 0.529167,1.98076 c 0.06157,0.23048 -0.192059,0.43063 -0.430627,0.43063 h -2.12443 c -0.238568,0 -0.492202,-0.20015 -0.430629,-0.43063 l 0.529167,-1.98076 c 0.03975,-0.14878 0.123981,-0.27798 0.277984,-0.27798 z"
           id="rect996-2-5"
           inkscape:connector-curvature="0"
           sodipodi:nodetypes="sssssssss" />
        <path
           style="opacity:1;fill:#3c3c3c;fill-opacity:1;stroke:none;stroke-width:1.32291663;stroke-linecap:round;stroke-linejoin:miter;stroke-miterlimit:4;stroke-dasharray:none;stroke-opacity:1"
           d="m 81.245301,144.20385 h -1.371385 c -0.154003,0 -0.238235,-0.1292 -0.277983,-0.27798 l -0.529167,-1.98076 c -0.06157,-0.23048 0.192058,-0.43063 0.430627,-0.43063 h 2.12443 c 0.238568,0 0.492202,0.20015 0.430629,0.43063 l -0.529167,1.98076 c -0.03975,0.14878 -0.123981,0.27798 -0.277984,0.27798 z"
           id="rect996-8-3-9"
           inkscape:connector-curvature="0"
           sodipodi:nodetypes="sssssssss" />
      </g>
    </g>
    <g
       id="g1440"
       transform="matrix(0.65137944,0,0,0.65137944,19.278711,38.6747)">
      <path
         transform="scale(0.26458333)"
         inkscape:export-ydpi="102.87247"
         inkscape:export-xdpi="102.87247"
         sodipodi:nodetypes="ccsssscsc"
         inkscape:connector-curvature="0"
         id="rect1116"
         d="m 225.48242,419.28711 -16.47461,16.47461 v 19.89258 c 0,2.59986 2.0935,4.69336 4.69336,4.69336 h 21.15235 c 2.59986,0 4.69336,-2.0935 4.69336,-4.69336 v -31.67383 c -10e-6,-2.59986 -2.0935,-4.69336 -4.69336,-4.69336 z"
         style="opacity:1;fill:#3c3c3c;fill-opacity:1;stroke:none;stroke-width:5;stroke-linecap:round;stroke-linejoin:miter;stroke-miterlimit:4;stroke-dasharray:none;stroke-opacity:1" />
      <g
         inkscape:export-ydpi="102.87247"
         inkscape:export-xdpi="102.87247"
         transform="translate(-16.084807,0.19223979)"
         id="g1157">
        <path
           style="opacity:1;fill:#ffffff;fill-opacity:1;stroke:none;stroke-width:1.32291663;stroke-linecap:round;stroke-linejoin:miter;stroke-miterlimit:4;stroke-dasharray:none;stroke-opacity:1"
           d="m 74.501911,115.10357 c 0.68788,0 1.241785,-0.55391 1.241785,-1.24179 v -3.11764 l -4.358907,4.35943 z"
           id="rect1116-9"
           inkscape:connector-curvature="0" />
        <path
           style="opacity:1;fill:#3c3c3c;fill-opacity:1;stroke:none;stroke-width:0.68059295;stroke-linecap:round;stroke-linejoin:miter;stroke-miterlimit:4;stroke-dasharray:none;stroke-opacity:1"
           d="m 74.04664,114.04525 c 0.353889,0 0.638852,-0.28498 0.638852,-0.63887 v -1.60392 l -2.242499,2.24279 z"
           id="rect1116-9-3"
           inkscape:connector-curvature="0" />
      </g>
    </g>
    <path
       sodipodi:type="star"
       style="opacity:1;fill:#00d700;fill-opacity:1;stroke:none;stroke-width:0.90871775;stroke-linecap:round;stroke-linejoin:miter;stroke-miterlimit:4;stroke-dasharray:none;stroke-opacity:1"
       id="path1165"
       sodipodi:sides="3"
       sodipodi:cx="91.843485"
       sodipodi:cy="115.08169"
       sodipodi:r1="5.2251458"
       sodipodi:r2="2.6125729"
       sodipodi:arg1="0"
       sodipodi:arg2="1.0471976"
       inkscape:flatsided="true"
       inkscape:rounded="0.05"
       inkscape:randomized="0"
       d="m 97.068629,115.08169 c 0,0.45251 -7.445833,4.75136 -7.837719,4.52511 -0.391886,-0.22626 -0.391886,-8.82397 0,-9.05022 0.391886,-0.22626 7.837719,4.0726 7.837719,4.52511 z"
       inkscape:transform-center-x="-1.3062886"
       inkscape:transform-center-y="-3.6145648e-06"
       inkscape:export-xdpi="123.25401"
       inkscape:export-ydpi="123.25401" />
    <g
       id="g1434"
       transform="matrix(0.54368694,0,0,0.54368694,48.202436,48.019845)">
      <rect
         inkscape:export-ydpi="68.580002"
         inkscape:export-xdpi="68.580002"
         transform="rotate(50.368215)"
         ry="1.1153495"
         rx="1.4118696"
         y="-7.6205359"
         x="172.77844"
         height="6.5233455"
         width="2.0385454"
         id="rect1424"
         style="opacity:1;fill:#3c3c3c;fill-opacity:1;stroke:none;stroke-width:1.32291663;stroke-linecap:round;stroke-linejoin:miter;stroke-miterlimit:4;stroke-dasharray:none;stroke-opacity:1" />
      <rect
         inkscape:export-ydpi="68.580002"
         inkscape:export-xdpi="68.580002"
         transform="rotate(49.050029)"
         ry="1.4118692"
         rx="1.4118692"
         y="-18.802271"
         x="170.30653"
         height="7.1229706"
         width="7.2642989"
         id="rect1290"
         style="opacity:1;fill:#666666;fill-opacity:1;stroke:none;stroke-width:0.71337909;stroke-linecap:round;stroke-linejoin:miter;stroke-miterlimit:4;stroke-dasharray:none;stroke-opacity:1" />
      <rect
         inkscape:export-ydpi="68.580002"
         inkscape:export-xdpi="68.580002"
         transform="rotate(49.050029)"
         ry="3.8834519"
         rx="3.8834519"
         y="-13.346977"
         x="169.44443"
         height="11.278037"
         width="8.9885101"
         id="rect1292"
         style="opacity:1;fill:#3c3c3c;fill-opacity:1;stroke:none;stroke-width:0.71337909;stroke-linecap:round;stroke-linejoin:miter;stroke-miterlimit:4;stroke-dasharray:none;stroke-opacity:1" />
      <rect
         inkscape:export-ydpi="68.580002"
         inkscape:export-xdpi="68.580002"
         transform="rotate(49.050029)"
         ry="1.1447631"
         rx="1.1447631"
         y="-3.3524723"
         x="171.96375"
         height="2.2895262"
         width="3.8441427"
         id="rect1294"
         style="opacity:1;fill:#3c3c3c;fill-opacity:1;stroke:none;stroke-width:0.71337909;stroke-linecap:round;stroke-linejoin:miter;stroke-miterlimit:4;stroke-dasharray:none;stroke-opacity:1" />
      <g
         inkscape:export-ydpi="68.580002"
         inkscape:export-xdpi="68.580002"
         transform="matrix(0.3534225,0.40728378,-0.40728378,0.3534225,170.13277,49.599662)"
         id="g1331">
        <rect
           style="opacity:1;fill:#ffffff;fill-opacity:1;stroke:none;stroke-width:1.32291663;stroke-linecap:round;stroke-linejoin:miter;stroke-miterlimit:4;stroke-dasharray:none;stroke-opacity:1"
           id="rect1312"
           width="1.7181888"
           height="3.7451003"
           x="42.388706"
           y="147.88785"
           rx="0.8356089"
           ry="0.1224836" />
        <rect
           style="opacity:1;fill:#ffffff;fill-opacity:1;stroke:none;stroke-width:1.32291663;stroke-linecap:round;stroke-linejoin:miter;stroke-miterlimit:4;stroke-dasharray:none;stroke-opacity:1"
           id="rect1312-9"
           width="1.7181888"
           height="3.7451003"
           x="48.510948"
           y="147.88785"
           rx="0.8356089"
           ry="0.1224836" />
      </g>
      <rect
         inkscape:export-ydpi="68.580002"
         inkscape:export-xdpi="68.580002"
         transform="rotate(49.050029)"
         ry="0.23351933"
         rx="0.23351933"
         y="-13.346977"
         x="169.44443"
         height="7.9402256"
         width="8.9885111"
         id="rect1292-3"
         style="opacity:1;fill:#3c3c3c;fill-opacity:1;stroke:none;stroke-width:0.71337909;stroke-linecap:round;stroke-linejoin:miter;stroke-miterlimit:4;stroke-dasharray:none;stroke-opacity:1" />
    </g>
    <g
       id="g905"
       transform="translate(-6.0803796)"
       inkscape:export-filename="/tmp/usb-connected-retina.png"
       inkscape:export-xdpi="112.46491"
       inkscape:export-ydpi="112.46491">
      <rect
         inkscape:export-ydpi="68.580002"
         inkscape:export-xdpi="68.580002"
         transform="rotate(50.368215)"
         ry="0.60640097"
         rx="0.76761508"
         y="-25.932961"
         x="175.24904"
         height="3.5466578"
         width="1.1083305"
         id="rect1424-6"
         style="opacity:1;fill:#338000;fill-opacity:1;stroke:none;stroke-width:0.71925253;stroke-linecap:round;stroke-linejoin:miter;stroke-miterlimit:4;stroke-dasharray:none;stroke-opacity:1" />
      <rect
         inkscape:export-ydpi="68.580002"
         inkscape:export-xdpi="68.580002"
         transform="rotate(49.050029)"
         ry="0.76761484"
         rx="0.76761484"
         y="-30.136013"
         x="174.38484"
         height="3.8726661"
         width="3.9495046"
         id="rect1290-7"
         style="opacity:1;fill:#666666;fill-opacity:1;stroke:none;stroke-width:0.3878549;stroke-linecap:round;stroke-linejoin:miter;stroke-miterlimit:4;stroke-dasharray:none;stroke-opacity:1" />
      <rect
         inkscape:export-ydpi="68.580002"
         inkscape:export-xdpi="68.580002"
         transform="rotate(49.050029)"
         ry="2.1113822"
         rx="2.1113822"
         y="-27.17004"
         x="173.91612"
         height="6.1317215"
         width="4.8869357"
         id="rect1292-5"
         style="opacity:1;fill:#338000;fill-opacity:1;stroke:none;stroke-width:0.3878549;stroke-linecap:round;stroke-linejoin:miter;stroke-miterlimit:4;stroke-dasharray:none;stroke-opacity:1" />
      <rect
         inkscape:export-ydpi="68.580002"
         inkscape:export-xdpi="68.580002"
         transform="rotate(49.050029)"
         ry="0.62239277"
         rx="0.62239277"
         y="-21.736158"
         x="175.28584"
         height="1.2447855"
         width="2.0900102"
         id="rect1294-3"
         style="opacity:1;fill:#338000;fill-opacity:1;stroke:none;stroke-width:0.3878549;stroke-linecap:round;stroke-linejoin:miter;stroke-miterlimit:4;stroke-dasharray:none;stroke-opacity:1" />
      <g
         inkscape:export-ydpi="68.580002"
         inkscape:export-xdpi="68.580002"
         transform="matrix(0.1921512,0.22143488,-0.22143488,0.1921512,161.14531,75.690991)"
         id="g1331-5">
        <rect
           style="opacity:1;fill:#ffffff;fill-opacity:1;stroke:none;stroke-width:1.32291663;stroke-linecap:round;stroke-linejoin:miter;stroke-miterlimit:4;stroke-dasharray:none;stroke-opacity:1"
           id="rect1312-6"
           width="1.7181888"
           height="3.7451003"
           x="42.388706"
           y="147.88785"
           rx="0.8356089"
           ry="0.1224836" />
        <rect
           style="opacity:1;fill:#ffffff;fill-opacity:1;stroke:none;stroke-width:1.32291663;stroke-linecap:round;stroke-linejoin:miter;stroke-miterlimit:4;stroke-dasharray:none;stroke-opacity:1"
           id="rect1312-9-2"
           width="1.7181888"
           height="3.7451003"
           x="48.510948"
           y="147.88785"
           rx="0.8356089"
           ry="0.1224836" />
      </g>
      <rect
         inkscape:export-ydpi="68.580002"
         inkscape:export-xdpi="68.580002"
         transform="rotate(49.050029)"
         ry="0.12696141"
         rx="0.12696141"
         y="-27.17004"
         x="173.91612"
         height="4.3169971"
         width="4.8869362"
         id="rect1292-3-9"
         style="opacity:1;fill:#338000;fill-opacity:1;stroke:none;stroke-width:0.3878549;stroke-linecap:round;stroke-linejoin:miter;stroke-miterlimit:4;stroke-dasharray:none;stroke-opacity:1" />
    </g>
    <g
       id="g1761"
       inkscape:export-filename="/tmp/usb-error-retina.png"
       inkscape:export-xdpi="112.46491"
       inkscape:export-ydpi="112.46491">
      <rect
         inkscape:export-ydpi="68.580002"
         inkscape:export-xdpi="68.580002"
         transform="rotate(50.368215)"
         ry="0.60640097"
         rx="0.76761508"
         y="-31.344957"
         x="180.548"
         height="3.5466578"
         width="1.1083305"
         id="rect1424-6-2"
         style="opacity:1;fill:#d45500;fill-opacity:1;stroke:none;stroke-width:0.71925253;stroke-linecap:round;stroke-linejoin:miter;stroke-miterlimit:4;stroke-dasharray:none;stroke-opacity:1" />
      <rect
         inkscape:export-ydpi="68.580002"
         inkscape:export-xdpi="68.580002"
         transform="rotate(49.050029)"
         ry="0.76761484"
         rx="0.76761484"
         y="-35.424675"
         x="179.8069"
         height="3.8726661"
         width="3.9495046"
         id="rect1290-7-7"
         style="opacity:1;fill:#666666;fill-opacity:1;stroke:none;stroke-width:0.3878549;stroke-linecap:round;stroke-linejoin:miter;stroke-miterlimit:4;stroke-dasharray:none;stroke-opacity:1" />
      <rect
         inkscape:export-ydpi="68.580002"
         inkscape:export-xdpi="68.580002"
         transform="rotate(49.050029)"
         ry="2.1113822"
         rx="2.1113822"
         y="-32.458702"
         x="179.33818"
         height="6.1317215"
         width="4.8869357"
         id="rect1292-5-0"
         style="opacity:1;fill:#d45500;fill-opacity:1;stroke:none;stroke-width:0.3878549;stroke-linecap:round;stroke-linejoin:miter;stroke-miterlimit:4;stroke-dasharray:none;stroke-opacity:1" />
      <rect
         inkscape:export-ydpi="68.580002"
         inkscape:export-xdpi="68.580002"
         transform="rotate(49.050029)"
         ry="0.62239277"
         rx="0.62239277"
         y="-27.024822"
         x="180.7079"
         height="1.2447855"
         width="2.0900102"
         id="rect1294-3-9"
         style="opacity:1;fill:#d45500;fill-opacity:1;stroke:none;stroke-width:0.3878549;stroke-linecap:round;stroke-linejoin:miter;stroke-miterlimit:4;stroke-dasharray:none;stroke-opacity:1" />
      <g
         inkscape:export-ydpi="68.580002"
         inkscape:export-xdpi="68.580002"
         transform="matrix(0.1921512,0.22143488,-0.22143488,0.1921512,168.69336,76.319992)"
         id="g1331-5-3">
        <rect
           style="opacity:1;fill:#ffffff;fill-opacity:1;stroke:none;stroke-width:1.32291663;stroke-linecap:round;stroke-linejoin:miter;stroke-miterlimit:4;stroke-dasharray:none;stroke-opacity:1"
           id="rect1312-6-6"
           width="1.7181888"
           height="3.7451003"
           x="42.388706"
           y="147.88785"
           rx="0.8356089"
           ry="0.1224836" />
        <rect
           style="opacity:1;fill:#ffffff;fill-opacity:1;stroke:none;stroke-width:1.32291663;stroke-linecap:round;stroke-linejoin:miter;stroke-miterlimit:4;stroke-dasharray:none;stroke-opacity:1"
           id="rect1312-9-2-0"
           width="1.7181888"
           height="3.7451003"
           x="48.510948"
           y="147.88785"
           rx="0.8356089"
           ry="0.1224836" />
      </g>
      <rect
         inkscape:export-ydpi="68.580002"
         inkscape:export-xdpi="68.580002"
         transform="rotate(49.050029)"
         ry="0.12696141"
         rx="0.12696141"
         y="-32.458702"
         x="179.33818"
         height="4.3169971"
         width="4.8869362"
         id="rect1292-3-9-6"
         style="opacity:1;fill:#d45500;fill-opacity:1;stroke:none;stroke-width:0.3878549;stroke-linecap:round;stroke-linejoin:miter;stroke-miterlimit:4;stroke-dasharray:none;stroke-opacity:1" />
    </g>
    <path
       sodipodi:type="star"
       style="opacity:1;fill:#dc0000;fill-opacity:1;stroke:none;stroke-width:1.32291663;stroke-linecap:round;stroke-linejoin:miter;stroke-miterlimit:4;stroke-dasharray:none;stroke-opacity:1"
       id="path1575"
       sodipodi:sides="8"
       sodipodi:cx="81.80928"
       sodipodi:cy="40.901382"
       sodipodi:r1="14.19275"
       sodipodi:r2="13.112391"
       sodipodi:arg1="0.78539816"
       sodipodi:arg2="1.1780972"
       inkscape:flatsided="true"
       inkscape:rounded="0.02"
       inkscape:randomized="0"
       d="m 91.84507,50.937172 c -0.153621,0.153621 -9.818536,4.15696 -10.03579,4.15696 -0.217253,0 -9.882168,-4.003339 -10.035789,-4.15696 -0.153622,-0.153621 -4.156961,-9.818536 -4.156961,-10.03579 0,-0.217253 4.003339,-9.882168 4.156961,-10.035789 0.153621,-0.153621 9.818536,-4.156961 10.035789,-4.156961 0.217254,0 9.882169,4.003339 10.03579,4.156961 0.153621,0.153621 4.15696,9.818536 4.15696,10.035789 0,0.217254 -4.003339,9.882169 -4.15696,10.03579 z"
       transform="matrix(0.30522097,-0.12642666,0.12642666,0.30522097,49.889884,113.61741)"
       inkscape:export-filename="/tmp/stop-retina.png"
       inkscape:export-xdpi="116.71"
       inkscape:export-ydpi="116.71" />
    <g
       id="g1743"
       inkscape:export-filename="/tmp/locale-retina.png"
       inkscape:export-xdpi="99.589996"
       inkscape:export-ydpi="99.589996">
      <circle
         r="4.7509718"
         cy="114.48188"
         cx="30.638807"
         id="path1579"
         style="opacity:1;fill:none;fill-opacity:1;stroke:#3c3c3c;stroke-width:0.7;stroke-linecap:round;stroke-linejoin:miter;stroke-miterlimit:4;stroke-dasharray:none;stroke-opacity:1" />
      <ellipse
         ry="4.807435"
         rx="2.807435"
         cy="114.48188"
         cx="30.638807"
         id="path1579-3"
         style="opacity:1;fill:none;fill-opacity:1;stroke:#3c3c3c;stroke-width:0.7;stroke-linecap:round;stroke-linejoin:miter;stroke-miterlimit:4;stroke-dasharray:none;stroke-opacity:1" />
      <path
         inkscape:connector-curvature="0"
         id="path1596"
         d="m 30.638807,109.73744 v 9.48888"
         style="fill:none;stroke:#3c3c3c;stroke-width:0.7;stroke-linecap:butt;stroke-linejoin:miter;stroke-miterlimit:4;stroke-dasharray:none;stroke-opacity:1" />
      <path
         inkscape:connector-curvature="0"
         id="path1596-5"
         d="m 35.383247,114.48188 h -9.48888"
         style="fill:none;stroke:#3c3c3c;stroke-width:0.7;stroke-linecap:butt;stroke-linejoin:miter;stroke-miterlimit:4;stroke-dasharray:none;stroke-opacity:1" />
      <g
         transform="translate(0,-0.13070007)"
         id="g1733">
        <path
           style="opacity:1;fill:none;fill-opacity:1;stroke:#3c3c3c;stroke-width:0.69999999;stroke-linecap:round;stroke-linejoin:miter;stroke-miterlimit:4;stroke-dasharray:none;stroke-opacity:1"
           d="m 34.3917,117.09979 c -1.001064,-0.27617 -2.140201,-0.43718 -3.750678,-0.43718 -1.614455,0 -2.755349,0.16176 -3.757908,0.43925"
           id="path1579-3-6"
           inkscape:connector-curvature="0"
           sodipodi:nodetypes="csc" />
        <path
           style="opacity:1;fill:none;fill-opacity:1;stroke:#3c3c3c;stroke-width:0.69999999;stroke-linecap:round;stroke-linejoin:miter;stroke-miterlimit:4;stroke-dasharray:none;stroke-opacity:1"
           d="m 26.815933,112.12693 v 3e-5 c 1.019106,0.28924 2.173793,0.45993 3.825089,0.45993 1.64896,0 2.802575,-0.16995 3.820957,-0.45838"
           id="path1579-3-6-6"
           inkscape:connector-curvature="0"
           sodipodi:nodetypes="ccsc" />
      </g>
      <circle
         r="4.7509718"
         cy="114.48188"
         cx="30.638807"
         id="path1579-2"
         style="opacity:1;fill:none;fill-opacity:1;stroke:#3c3c3c;stroke-width:0.7;stroke-linecap:round;stroke-linejoin:miter;stroke-miterlimit:4;stroke-dasharray:none;stroke-opacity:1" />
    </g>
  </g>
</svg>
